{
	"title"		: "300k",
	"author"	: "Bill Rocha",
    
    "DB"        :{
      "default"   : "mysql",
      "mysql": {
        "driver"  : "mysql",
        "host"    : "localhost",
        "database": "300k",
        "user"    : "300k",
        "password": "x$1$2"
      }
    },
    
    "Routers"   :{        
        "runstyle"  : "runstyle",
        "runscript" : "runscript",
        "*"         : ""
    }    

}